Question3.vcd
$date
	Sat Sep 09 20:55:57 2023
$end
$version
	Icarus Verilog
$end
$timescale
	1ns
$end
$scope module MajorityLogicPrimitive_tb $end
$var wire 1 ! y $end
$var reg 1 " a $end
$var reg 1 # b $end
$var reg 1 $ c $end
$var reg 1 % d $end
$upscope $end
$enddefinitions $end
$comment Show the parameter values. $end
$dumpall
$end
#0
$dumpvars
x%
x$
x#
x"
x!
$end
#5
0!
1%
0$
0#
0"
#10
0%
1$
#15
1%
#20
0%
0$
1#
#25
1%
#30
0%
1$
#35
1!
1%
#40
0!
0%
0$
0#
1"
#45
1%
#50
0%
1$
#55
1!
1%
#60
0!
0%
0$
1#
#65
1!
1%
#70
0%
1$
#75
1%
#80
0!
0%
0$
0#
0"
